67.4861928729    -4787.27593287    
69.7608200953    -4787.29001733    
72.0859925320    -4787.30190504    
74.4622656251    -4787.31181694    
76.8901948164    -4787.31995480    
79.3703355479    -4787.32650267    
81.9032432615    -4787.33163093    
84.4894733990    -4787.33549036    
87.1295814025    -4787.33821449    
89.8241227139    -4787.33993553    
92.5736527749    -4787.34075923    
95.3787270277    -4787.34079253    
98.2399009140    -4787.34012619    
101.157729876    -4787.33884754    
104.132769355    -4787.33715157    
107.165574794    -4787.33498505    
110.256701633    -4787.33241513    
113.406705316    -4787.32948086    
116.616141284    -4787.32622156    
119.885564979    -4787.32272378    
123.215531843    -4787.31901629    
