247.236303086    -6228.01710338    
255.569421334    -6228.02997480    
264.087712452    -6228.04104481    
272.793211305    -6228.05043828    
281.687952760    -6228.05834426    
290.773971685    -6228.06487436    
300.053302945    -6228.07012644    
309.527981408    -6228.07423682    
319.200041939    -6228.07732345    
329.071519407    -6228.07948760    
339.144448677    -6228.08079963    
349.420864617    -6228.08135067    
359.902802092    -6228.08108386    
370.592295970    -6228.08018307    
381.491381117    -6228.07870796    
392.602092400    -6228.07674495    
403.926464686    -6228.07433840    
415.466532841    -6228.07150749    
427.224331732    -6228.06837001    
439.201896226    -6228.06493914    
451.401261189    -6228.06124518    
