118.312162792    -262.711878393    
122.299883165    -262.716050502    
126.376215940    -262.719458225    
130.542134879    -262.722453068    
134.798613746    -262.725265026    
139.146626302    -262.727655125    
143.587146310    -262.729478494    
148.121147534    -262.730676093    
152.749603735    -262.731291220    
157.473488677    -262.731853613    
162.293776121    -262.731754264    
167.211439831    -262.732426562    
172.227453570    -262.732612050    
177.342791100    -262.732483895    
182.558426183    -262.731878066    
187.875332582    -262.730892145    
193.294484061    -262.729772124    
198.816854381    -262.728605867    
204.443417305    -262.727302322    
210.175146596    -262.725898890    
216.013016017    -262.724293153    
