56.9997725826    -79.7173665191    
58.9209542179    -79.7313274294    
60.8848270409    -79.7433997708    
62.8918601855    -79.7537115075    
64.9425227856    -79.7623926640    
67.0372839753    -79.7695664425    
69.1766128884    -79.7753381316    
71.3609786588    -79.7798065928    
73.5908504205    -79.7830618151    
75.8666973074    -79.7852001751    
78.1889884535    -79.7863108055    
80.5581929926    -79.7864656713    
82.9747800587    -79.7857390600    
85.4392187858    -79.7841963620    
87.9519783077    -79.7819071138    
90.5135277584    -79.7789286446    
93.1243362719    -79.7753235790    
95.7848729820    -79.7711444587    
98.4956070227    -79.7664351060    
101.257007528    -79.7612420745    
104.069543632    -79.7556063893    
