118.249418712    -328.453746285    
122.028262247    -328.459326183    
125.886766078    -328.463576626    
129.825761120    -328.466600760    
133.846078288    -328.468502039    
137.948548498    -328.469360918    
142.134002667    -328.469260966    
146.403271710    -328.468280945    
150.757186543    -328.466504813    
155.196578082    -328.464002289    
159.722277242    -328.460838667    
164.335114939    -328.457079045    
169.035922090    -328.452775916    
173.825529610    -328.447976974    
178.704768414    -328.442736443    
183.674469419    -328.437105550    
188.735463541    -328.431134753    
193.888581695    -328.424866208    
199.134654797    -328.418337662    
204.474513763    -328.411574399    
209.908989508    -328.404598599    
