77.0711533987    -107.603948721    
79.6688424387    -107.608201668    
82.3242555524    -107.611794589    
85.0380270704    -107.614495211    
87.8107913230    -107.616942710    
90.6431826408    -107.618910064    
93.5358353543    -107.620387405    
96.4893837940    -107.621452157    
99.5044622903    -107.622525535    
102.581705174    -107.622312216    
105.721746775    -107.623515559    
108.925221424    -107.623268000    
112.192763451    -107.622691884    
115.525007188    -107.622602021    
118.922586964    -107.621955425    
122.386137110    -107.621184669    
125.916291956    -107.620212910    
129.513685834    -107.619102874    
133.178953073    -107.617766919    
136.912728004    -107.616454267    
140.715644957    -107.614954948    
