199.201536998    -585.140202569    
205.915639831    -585.152158637    
212.778938878    -585.162419858    
219.793073656    -585.171140278    
226.959683684    -585.178319150    
234.280408482    -585.184390861    
241.756887568    -585.189146950    
249.390760462    -585.192779084    
257.183666681    -585.195134317    
265.137245744    -585.197052299    
273.253137171    -585.197864680    
281.532980481    -585.197964402    
289.978415191    -585.197285059    
298.591080822    -585.195864135    
307.372616891    -585.194058113    
316.324662918    -585.191599435    
325.448858421    -585.188702247    
334.746842920    -585.185257069    
344.220255932    -585.181455413    
353.870736978    -585.177354919    
363.699925575    -585.172864532    
