160.283204633    -469.557149483    
165.685562138    -469.560986588    
171.207967146    -469.564304458    
176.851738860    -469.567094791    
182.618196484    -469.569302194    
188.508659221    -469.571177625    
194.524446275    -469.572654812    
200.666876848    -469.573734528    
206.937270144    -469.574527993    
213.336945367    -469.575010220    
219.867221719    -469.575191473    
226.529418405    -469.575144110    
233.324854626    -469.574920146    
240.254849588    -469.574421021    
247.320722492    -469.573805942    
254.523792543    -469.573013614    
261.865378943    -469.572047127    
269.346800897    -469.570343705    
276.969377606    -469.568227619    
284.734428276    -469.567749464    
292.643272108    -469.566319182    
