57.8609746144    -1655.98733395    
59.8111831292    -1655.99333093    
61.8047278471    -1655.99834276    
63.8420849903    -1656.00250211    
65.9237307807    -1656.00586120    
68.0501414404    -1656.00852357    
70.2217931913    -1656.01054227    
72.4391622555    -1656.01198359    
74.7027248550    -1656.01290972    
77.0129572118    -1656.01338926    
79.3703355479    -1656.01345623    
81.7753360853    -1656.01313929    
84.2284350461    -1656.01252933    
86.7301086523    -1656.01167269    
89.2808331258    -1656.01057425    
91.8810846886    -1656.00929184    
94.5313395629    -1656.00783192    
97.2320739706    -1656.00620437    
99.9837641337    -1656.00444531    
102.786886274    -1656.00258172    
105.641916614    -1656.00061474    
