88.3966800289    -3820.96406785    
91.3760967985    -3820.97320072    
94.4217201350    -3820.98098948    
97.5342775830    -3820.98755956    
100.714496687    -3820.99301457    
103.963104993    -3820.99745050    
107.280830044    -3821.00094978    
110.668399386    -3821.00352482    
114.126540562    -3821.00529672    
117.655981119    -3821.00632486    
121.257448599    -3821.00665506    
124.931670549    -3821.00631805    
128.679374513    -3821.00537854    
132.501288036    -3821.00390709    
136.398138661    -3821.00191241    
140.370653935    -3820.99945451    
144.419561401    -3820.99653648    
148.545588605    -3820.99321752    
152.749463090    -3820.98953382    
157.031912402    -3820.98550867    
161.393664086    -3820.98122122    
